<?xml version="1.0" encoding="utf-8"?>
<!-- Generator: Adobe Illustrator 24.0.2, SVG Export Plug-In . SVG Version: 6.00 Build 0)  -->
<svg version="1.1" id="Layer_1" xmlns="http://www.w3.org/2000/svg" xmlns:xlink="http://www.w3.org/1999/xlink" x="0px" y="0px"
	 viewBox="0 0 527.6 173" style="enable-background:new 0 0 527.6 173;" xml:space="preserve">
<style type="text/css">
	.st0{fill:#FFFFFF;}
</style>
<g id="Layer_2_1_">
	<g id="Layer_1-2">
		<path class="st0" d="M441.1,173c47.8,0,86.5-38.7,86.5-86.5S488.9,0,441.1,0s-86.5,38.7-86.5,86.5
			C354.6,134.3,393.3,173,441.1,173z M522,86.5c0,16.8-5.2,33.2-15,46.9h-20.5c-4.7,0-9.2-2.2-12-6l-8-10.8
			c-2.9-3.9-3.7-8.9-2.2-13.5l5.5-16.8c1.4-4.3,4.7-7.8,9-9.4l12.5-4.6c4.7-1.7,9.9-1,13.9,1.9L522,86.3V86.5z M443.9,33.6
			c0-4.8,2.3-9.2,6.1-12l16.4-11.9c15.9,5.3,29.8,15.4,39.8,28.8l-6,18.4c-1.4,4.3-4.7,7.8-9,9.4l-13.3,4.9c-4.7,1.7-9.9,1-13.9-1.9
			L450,59.2c-3.8-2.8-6.1-7.2-6.1-12L443.9,33.6z M450,113.7c4.7,0,9.2,2.2,12,6l8,10.7c2.9,3.9,3.7,8.9,2.2,13.5l-6.4,19.7
			c-15.9,5.1-33.1,5.1-49,0.1l-6.4-19.6c-1.5-4.5-0.7-9.5,2.1-13.4l7.9-10.9c2.8-3.8,7.3-6.1,12-6.1L450,113.7z M415.8,9.7
			l16.4,11.9c3.9,2.8,6.1,7.3,6.1,12v13.6c0,4.8-2.3,9.2-6.1,12L418,69.5c-4,2.9-9.2,3.7-13.8,2l-12.6-4.6c-4.3-1.6-7.7-5-9.1-9.4
			l-6.3-19.3C386.2,24.9,400,14.9,415.8,9.7L415.8,9.7z M360.2,86.9l17-12.3c4-2.9,9.2-3.7,13.8-2l12.3,4.5c4.3,1.6,7.7,5,9.1,9.4
			l5.4,16.7c1.5,4.5,0.7,9.5-2.1,13.4l-7.6,10.5c-2.8,3.8-7.3,6.1-12,6.1h-21C365.5,119.7,360.3,103.5,360.2,86.9z"/>
		<path class="st0" d="M441.3,119.1c16.8,0,30.3-3,30.3-6.8V79.3H411v32.9C411,116,424.6,119.1,441.3,119.1z"/>
		<path class="st0" d="M411,75.2c0-3.8,13.6-6.8,30.3-6.8s30.3,3,30.3,6.8S458.1,82,441.3,82S411,79,411,75.2z"/>
		<polygon class="st0" points="441.3,104.2 375.5,73.4 441.3,42.6 507.2,73.4 		"/>
		<polygon class="st0" points="480.2,110.8 478.6,110.8 478.6,86.8 441.3,71.7 442.6,70.9 480.2,86.1 		"/>
		<path class="st0" d="M482,120.6v-9.5c-0.1-1.4-1.3-2.5-2.8-2.5c-1.3,0.1-2.4,1.1-2.5,2.5v9.5H482z"/>
		<path class="st0" d="M45.7,0.9v147.3H0.5V0.9H45.7z"/>
		<path class="st0" d="M163.4,93h-48v55.1h-44V0.9h106.5V36h-62.5v24h48L163.4,93z"/>
		<path class="st0" d="M266.1,148.2l-8.3-29h-39.5l-8.8,29h-36.7L218.3,0.9h47.8l46.2,147.3L266.1,148.2z M226,87h23.8l-11.9-42.7
			L226,87z"/>
		<path class="st0" d="M1.4,171.6h-1c-0.2,0-0.4-0.2-0.3-0.4c0,0,0,0,0,0v-13.4c0-0.2,0.1-0.3,0.3-0.4c0,0,0,0,0,0h1
			c0.2,0,0.3,0.2,0.3,0.3c0,0,0,0,0,0v13.4C1.7,171.4,1.6,171.6,1.4,171.6C1.4,171.6,1.4,171.6,1.4,171.6z"/>
		<path class="st0" d="M14.3,171.6h-1.2c-0.2,0-0.5-0.1-0.6-0.3l-5.9-11.1c0,0,0-0.1-0.1-0.1s0,0,0,0.1v11.1c0,0.2-0.1,0.4-0.3,0.4
			c0,0,0,0,0,0h-1c-0.2,0-0.3,0-0.3-0.2V158c0-0.3,0.3-0.5,0.5-0.5c0,0,0,0,0,0h1c0.5,0,0.6,0.1,0.8,0.4l5.8,11.1v0.1c0,0,0,0,0-0.1
			v-11.1c0-0.2,0.1-0.4,0.3-0.4c0,0,0,0,0,0h1c0.2,0,0.3,0.2,0.3,0.4c0,0,0,0,0,0v13.2C14.8,171.3,14.6,171.6,14.3,171.6z"/>
		<path class="st0" d="M25.9,159h-3.7v12.3c0,0.2-0.1,0.4-0.3,0.4c0,0,0,0,0,0h-1c-0.2,0-0.4-0.2-0.4-0.4V159h-3.7
			c-0.2,0-0.4-0.1-0.4-0.3v-0.8c0-0.2,0.2-0.4,0.4-0.3c0,0,0,0,0,0h9.1c0.2,0,0.3,0.1,0.4,0.3c0,0,0,0,0,0v0.8
			C26.2,158.9,26.1,159,25.9,159z"/>
		<path class="st0" d="M35.6,171.7c-0.7,0.1-2.6,0.1-3.7,0.1c-2.7,0-4-1-4-3.5v-7.3c0-2.5,1.4-3.5,4-3.5c1.1,0,2.9,0,3.7,0.1
			c0.1,0,0.2,0.1,0.2,0.3v1c0,0.1-0.1,0.2-0.2,0.2c0,0,0,0,0,0h-3.7c-2,0-2.3,0.5-2.3,2v2.6h5.8c0.2,0,0.4,0.2,0.4,0.4l0,0v0.7
			c0,0.2-0.2,0.4-0.4,0.4c0,0,0,0,0,0h-5.8v3.2c0,1.4,0.3,2,2.3,2h3.7c0.1,0,0.2,0.1,0.2,0.2v1C35.8,171.6,35.7,171.6,35.6,171.7z"
			/>
		<path class="st0" d="M47.7,171.6h-1.2c-0.2,0-0.3,0-0.5-0.2l-3.4-5.7h-0.5c-0.6,0-1.1,0-2.1-0.1v5.6c0,0.2-0.1,0.4-0.3,0.4
			c0,0,0,0,0,0h-1c-0.2,0-0.4-0.2-0.3-0.4c0,0,0,0,0,0V158c0-0.3,0.1-0.4,0.5-0.4c1.1-0.1,2.2-0.2,3.3-0.1c3,0,5.3,1,5.3,4.1v0.1
			c0.1,1.8-1.2,3.5-3,3.8l3.5,5.8c0,0.1,0,0.1,0,0.2C47.9,171.5,47.8,171.6,47.7,171.6z M45.7,161.5c0-1.9-1.2-2.5-3.6-2.5
			c-0.6,0-1.6,0-2.1,0.1v5.2h2.1c2.3,0,3.6-0.6,3.6-2.6V161.5z"/>
		<path class="st0" d="M59.6,171.6h-1.2c-0.2,0-0.5-0.1-0.6-0.3L52,160.2c0,0,0-0.1-0.1-0.1s0,0,0,0.1v11.1c0,0.2-0.1,0.4-0.3,0.4
			c0,0,0,0,0,0h-1c-0.2,0-0.3,0-0.3-0.2V158c0-0.3,0.2-0.5,0.5-0.5c0,0,0,0,0,0h1c0.5,0,0.6,0.1,0.8,0.4l5.8,11.1v0.1c0,0,0,0,0-0.1
			v-11.1c0-0.2,0.1-0.4,0.3-0.4c0,0,0,0,0,0h1c0.2,0,0.3,0.2,0.3,0.3c0,0,0,0,0,0v13.2C60.1,171.4,59.9,171.6,59.6,171.6z"/>
		<path class="st0" d="M72.8,171.6h-1.1c-0.2,0-0.3-0.1-0.3-0.3l-1.2-4.3h-4.9l-1.2,4.3c0,0.2-0.2,0.3-0.3,0.3h-1.2
			c-0.2,0-0.3-0.1-0.3-0.3c0,0,0,0,0,0c0,0,0-0.1,0-0.1l3.5-12.4c0.2-0.9,1-1.5,1.9-1.4c0.9-0.1,1.7,0.5,1.9,1.4l3.5,12.4
			c0,0,0,0.1,0,0.1C73.1,171.5,73,171.6,72.8,171.6C72.8,171.6,72.8,171.6,72.8,171.6z M68,159.2c-0.1-0.2-0.2-0.3-0.4-0.3
			c-0.2,0-0.4,0.1-0.4,0.3l-1.7,6.3h4.2L68,159.2z"/>
		<path class="st0" d="M82.1,159h-3.7v12.3c0,0.2-0.1,0.4-0.3,0.4c0,0,0,0,0,0H77c-0.2,0-0.4-0.2-0.3-0.4c0,0,0,0,0,0V159H73
			c-0.2,0-0.4-0.1-0.4-0.3v-0.8c0-0.2,0.2-0.4,0.4-0.3c0,0,0,0,0,0h9.1c0.2,0,0.3,0.1,0.4,0.3c0,0,0,0,0,0v0.8
			C82.5,158.9,82.3,159,82.1,159z"/>
		<path class="st0" d="M86.2,171.6h-1c-0.2,0-0.4-0.2-0.3-0.4v-13.4c0-0.2,0.1-0.4,0.3-0.4c0,0,0,0,0,0h1c0.2,0,0.3,0.2,0.3,0.3
			c0,0,0,0,0,0v13.4C86.6,171.4,86.4,171.6,86.2,171.6C86.2,171.6,86.2,171.6,86.2,171.6z"/>
		<path class="st0" d="M94.5,171.8c-3,0-5.1-1.8-5.1-6v-2.4c0-4.2,2.2-6,5.1-6s5.1,1.7,5.1,6v2.4C99.7,170,97.5,171.8,94.5,171.8z
			 M97.9,163.3c0-3.2-1.3-4.4-3.4-4.4s-3.4,1.2-3.4,4.4v2.4c0,3.2,1.3,4.4,3.4,4.4s3.4-1.2,3.4-4.4V163.3z"/>
		<path class="st0" d="M111.7,171.6h-1.2c-0.2,0-0.5-0.1-0.6-0.3l-5.9-11.1v-0.1c0,0,0,0,0,0.1v11.1c0,0.2-0.1,0.4-0.3,0.4
			c0,0,0,0,0,0h-1c-0.2,0-0.3,0-0.3-0.2V158c0-0.3,0.2-0.5,0.5-0.5c0,0,0,0,0,0h1c0.5,0,0.6,0.1,0.8,0.4l5.8,11.1v0.1c0,0,0,0,0-0.1
			v-11.1c0-0.2,0.1-0.4,0.3-0.4c0,0,0,0,0,0h1c0.2,0,0.3,0.2,0.3,0.3c0,0,0,0,0,0v13.2C112.2,171.3,112,171.6,111.7,171.6z"/>
		<path class="st0" d="M124.9,171.6h-1.1c-0.2,0-0.3-0.1-0.3-0.3l-1.2-4.3h-4.9l-1.2,4.4c0,0.2-0.2,0.3-0.3,0.3h-1.1
			c-0.2,0-0.3-0.1-0.3-0.3c0,0,0,0,0,0c0,0,0-0.1,0-0.1l3.5-12.4c0.3-1.1,1.4-1.7,2.5-1.4c0.7,0.2,1.2,0.7,1.4,1.4l3.5,12.4
			c0,0,0,0.1,0,0.1C125.1,171.5,125,171.6,124.9,171.6z M120.1,159.2c-0.1-0.2-0.2-0.3-0.4-0.3c-0.2,0-0.4,0.1-0.4,0.3l-1.7,6.3h4.2
			L120.1,159.2z"/>
		<path class="st0" d="M134.6,171.6c-1.2,0.1-2.5,0.2-3.7,0.2c-2,0-4.1-0.4-4.1-3.5v-10.3c0-0.2,0.2-0.4,0.4-0.4l0,0h1
			c0.2,0,0.4,0.2,0.4,0.4c0,0,0,0,0,0v10.3c0,1.4,0.3,2,2.3,2h3.7c0.1,0,0.2,0.1,0.2,0.2v0.9C134.8,171.5,134.8,171.6,134.6,171.6z"
			/>
		<path class="st0" d="M148.9,165h-5.8v6.2c0,0.2-0.2,0.4-0.4,0.4c0,0,0,0,0,0h-1c-0.2,0-0.4-0.2-0.4-0.4c0,0,0,0,0,0v-10.3
			c0-2.5,1.4-3.5,4-3.5c1.1,0,2.9,0,3.7,0.1c0.1,0,0.2,0.1,0.2,0.3v1c0,0.1-0.1,0.2-0.2,0.2c0,0,0,0,0,0h-3.7c-2,0-2.3,0.5-2.3,2
			v2.6h5.8c0.2,0,0.4,0.2,0.4,0.4c0,0,0,0,0,0v0.7C149.2,164.9,149,165,148.9,165z"/>
		<path class="st0" d="M156.4,171.8c-3,0-5.1-1.8-5.1-6v-2.4c0-4.2,2.2-6,5.1-6s5.1,1.7,5.1,6v2.4
			C161.5,170,159.4,171.8,156.4,171.8z M159.8,163.3c0-3.2-1.3-4.4-3.4-4.4s-3.4,1.2-3.4,4.4v2.4c0,3.2,1.3,4.4,3.4,4.4
			s3.4-1.2,3.4-4.4V163.3z"/>
		<path class="st0" d="M169,171.8c-3,0-5.1-1.8-5.1-6v-2.4c0-4.2,2.2-6,5.1-6s5.1,1.7,5.1,6v2.4C174.1,170,171.9,171.8,169,171.8z
			 M172.4,163.3c0-3.2-1.3-4.4-3.4-4.4s-3.4,1.2-3.4,4.4v2.4c0,3.2,1.3,4.4,3.4,4.4s3.4-1.2,3.4-4.4V163.3z"/>
		<path class="st0" d="M184.5,159h-3.7v12.3c0,0.2-0.1,0.4-0.3,0.4c0,0,0,0,0,0h-1.1c-0.2,0-0.4-0.2-0.3-0.4c0,0,0,0,0,0V159h-3.7
			c-0.2,0-0.4-0.1-0.4-0.3v-0.8c0-0.2,0.2-0.4,0.4-0.3c0,0,0,0,0,0h9.1c0.2,0,0.4,0.1,0.4,0.3c0,0,0,0,0,0v0.8
			C184.9,158.9,184.8,159,184.5,159z"/>
		<path class="st0" d="M190.8,171.8c-1,0-2.1,0-3.1-0.2c-0.4-0.1-0.6-0.2-0.6-0.7v-12.6c0-0.3,0.2-0.6,0.5-0.7c0,0,0.1,0,0.1,0
			c1-0.1,2-0.2,3-0.1c3,0,5.6,0.8,5.6,3.7v0.3c0.1,1.3-0.8,2.5-2,3c1.3,0.4,2.2,1.7,2.1,3.1v0.3
			C196.3,170.9,193.7,171.8,190.8,171.8z M194.5,161c0-1.8-1.5-2.2-3.8-2.2c-0.6,0-1.4,0-1.9,0.1v4.7h2.9c2.2,0,2.8-1.1,2.8-2.3
			L194.5,161z M194.6,167.4c0-1.3-0.6-2.4-2.9-2.4h-2.9v5.2c0.6,0,1.3,0.1,2,0.1c2.4,0,3.8-0.5,3.8-2.6L194.6,167.4z"/>
		<path class="st0" d="M208.1,171.6H207c-0.2,0-0.3-0.1-0.3-0.3l-1.3-4.3h-4.9l-1.2,4.4c0,0.2-0.2,0.3-0.3,0.3h-1.1
			c-0.2,0-0.3-0.1-0.3-0.3c0,0,0,0,0,0c0,0,0-0.1,0-0.1l3.5-12.4c0.3-1.1,1.4-1.7,2.5-1.4c0.7,0.2,1.2,0.7,1.4,1.4l3.5,12.4
			c0,0,0,0.1,0,0.1C208.4,171.5,208.2,171.6,208.1,171.6C208.1,171.6,208.1,171.6,208.1,171.6z M203.3,159.2
			c-0.1-0.2-0.2-0.3-0.4-0.3c-0.2,0-0.4,0.1-0.4,0.3l-1.7,6.3h4.2L203.3,159.2z"/>
		<path class="st0" d="M217.8,171.6c-1.2,0.1-2.5,0.2-3.7,0.2c-2,0-4-0.4-4-3.5v-10.3c0-0.2,0.2-0.4,0.4-0.4c0,0,0,0,0,0h1
			c0.2,0,0.4,0.2,0.4,0.4c0,0,0,0,0,0v10.3c0,1.4,0.3,2,2.3,2h3.7c0.1,0,0.2,0.1,0.2,0.2v0.9C218.1,171.5,218,171.6,217.8,171.6z"/>
		<path class="st0" d="M227.6,171.6c-1.2,0.1-2.5,0.2-3.7,0.2c-2,0-4-0.4-4-3.5v-10.3c0-0.2,0.2-0.4,0.4-0.4c0,0,0,0,0,0h1
			c0.2,0,0.4,0.2,0.4,0.4c0,0,0,0,0,0v10.3c0,1.4,0.3,2,2.3,2h3.7c0.1,0,0.2,0.1,0.2,0.2c0,0,0,0,0,0v0.9
			C227.8,171.5,227.7,171.6,227.6,171.6z"/>
		<path class="st0" d="M244,171.6h-1.1c-0.2,0-0.3-0.1-0.3-0.3l-1.3-4.3h-4.9l-1.2,4.4c0,0.2-0.2,0.3-0.3,0.3h-1.1
			c-0.2,0-0.3-0.1-0.3-0.3c0,0,0,0,0,0c0,0,0-0.1,0-0.1l3.5-12.4c0.2-0.9,1-1.5,1.9-1.4c0.9-0.1,1.7,0.5,1.9,1.4l3.5,12.4
			c0,0,0,0.1,0,0.1C244.3,171.5,244.1,171.6,244,171.6z M239.2,159.2c-0.1-0.2-0.2-0.3-0.4-0.3c-0.2,0-0.4,0.1-0.4,0.3l-1.7,6.3h4.2
			L239.2,159.2z"/>
		<path class="st0" d="M253.7,171.5c-1,0.2-2.1,0.3-3.1,0.3c-2.3,0-5-1.3-5-5.9v-2.6c0-4.7,2.7-5.9,5-5.9c1.1,0,2.1,0.1,3.2,0.3
			c0.2,0,0.3,0.1,0.3,0.3v1c0,0.1,0,0.2-0.2,0.2h-0.1c-0.7,0-2.1-0.2-3.2-0.2c-1.9,0-3.3,1.1-3.3,4.3v2.6c0,3.2,1.4,4.3,3.3,4.3
			c1.1,0,2.4-0.1,3.1-0.1h0.1c0.2,0,0.3,0.1,0.3,0.3v0.8C254.1,171.4,254,171.5,253.7,171.5z"/>
		<path class="st0" d="M265.9,171.6h-1.1c-0.2,0-0.3-0.1-0.3-0.3l-1.2-4.3h-4.9l-1.2,4.4c0,0.2-0.2,0.3-0.4,0.3h-1.1
			c-0.2,0-0.3-0.1-0.3-0.3c0,0,0,0,0,0c0,0,0-0.1,0-0.1l3.5-12.4c0.2-0.9,1-1.5,1.9-1.4c0.9-0.1,1.7,0.5,1.9,1.4l3.5,12.4
			c0,0,0,0.1,0,0.1C266.2,171.5,266.1,171.6,265.9,171.6z M261.2,159.2c0-0.2-0.2-0.3-0.4-0.3s-0.3,0.1-0.4,0.3l-1.7,6.3h4.2
			L261.2,159.2z"/>
		<path class="st0" d="M272.1,171.8c-1.2,0-2.3-0.1-3.5-0.2c-0.2,0-0.4-0.2-0.4-0.5c0,0,0,0,0,0V158c0-0.2,0.2-0.4,0.4-0.5
			c0,0,0,0,0,0c1.1-0.1,2.3-0.2,3.5-0.2c3.5,0,5.8,1.8,5.8,5.9v2.6C277.9,169.9,275.7,171.8,272.1,171.8z M276.1,163.3
			c0-3.4-1.8-4.4-4-4.4c-0.9,0-1.5,0-2.1,0v11.3c0.6,0,1.2,0,2.1,0c2.3,0,4-1,4-4.4V163.3z"/>
		<path class="st0" d="M288.2,171.7c-0.7,0.1-2.6,0.1-3.7,0.1c-2.7,0-4-1-4-3.5v-7.3c0-2.5,1.4-3.5,4-3.5c1.1,0,2.9,0,3.7,0.1
			c0.1,0,0.2,0.1,0.2,0.3v1c0,0.1-0.1,0.2-0.2,0.2c0,0,0,0,0,0h-3.7c-2,0-2.3,0.5-2.3,2v2.6h5.8c0.2,0,0.4,0.2,0.4,0.4c0,0,0,0,0,0
			v0.7c0,0.2-0.2,0.4-0.4,0.4l0,0h-5.8v3.2c0,1.4,0.3,2,2.3,2h3.7c0.1,0,0.2,0.1,0.2,0.2c0,0,0,0,0,0v1
			C288.4,171.6,288.3,171.6,288.2,171.7z"/>
		<path class="st0" d="M302.1,171.6h-0.9c-0.2,0-0.4-0.2-0.4-0.4c0,0,0,0,0,0V160v-0.1l0,0l-2.8,5.6c-0.1,0.4-0.5,0.6-0.9,0.6h-0.9
			c-0.4,0-0.7-0.2-0.9-0.6l-2.7-5.6l0,0c0,0,0,0,0,0.1v11.3c0,0.2-0.2,0.4-0.4,0.4l0,0h-0.9c-0.2,0-0.4-0.2-0.4-0.4c0,0,0,0,0,0
			v-13.3c0-0.3,0.2-0.6,0.5-0.6h1.2c0.3,0,0.5,0.1,0.6,0.3l3.1,6.5c0.1,0.2,0.1,0.2,0.2,0.2s0.1,0,0.2-0.2l3.1-6.5
			c0.1-0.3,0.3-0.3,0.6-0.3h1.2c0.3,0,0.5,0.2,0.5,0.6v13.2C302.5,171.4,302.3,171.6,302.1,171.6
			C302.1,171.6,302.1,171.6,302.1,171.6z"/>
		<path class="st0" d="M313.6,158l-2.9,6.6c-0.2,0.5-0.5,1-1,1.3v5.4c0,0.2-0.1,0.4-0.3,0.4h-1c-0.2,0-0.4-0.2-0.4-0.4v-5.4
			c-0.3-0.1-0.7-0.5-1-1.3l-3-6.6c0-0.1-0.1-0.1-0.1-0.2c0-0.1,0.1-0.3,0.3-0.3h1.2c0.1,0,0.3,0.1,0.3,0.3l2.6,6.2
			c0.2,0.4,0.3,0.5,0.4,0.5s0.2,0,0.4-0.5l2.6-6.2c0.1-0.1,0.2-0.2,0.3-0.3h1.2c0.2,0,0.3,0.1,0.3,0.3
			C313.6,157.9,313.6,157.9,313.6,158z"/>
		<path class="st0" d="M306.2,4.3c5.5,0,9.9,4.5,9.9,9.9c0,0.1,0,0.1,0,0.2c0.6,5.5-3.5,10.4-9,10.9c-5.5,0.6-10.4-3.5-10.9-9
			c-0.1-0.7-0.1-1.3,0-2c-0.1-5.5,4.4-10.1,9.9-10.1C306.1,4.3,306.2,4.3,306.2,4.3z M306.2,23.4c5,0,8.4-4.1,8.4-8.9
			s-3.4-8.9-8.4-8.9c-4.7,0-8.5,3.8-8.5,9c-0.1,4.7,3.5,8.6,8.3,8.8C306.1,23.4,306.1,23.4,306.2,23.4L306.2,23.4z M310.8,19.6
			c-1.2,0.7-2.6,1.1-4,1c-3.1,0.2-5.8-2.2-6-5.4c0-0.2,0-0.4,0-0.6c-0.1-3.3,2.6-6.1,5.9-6.1c0.1,0,0.2,0,0.3,0
			c1.3,0,2.5,0.3,3.6,0.9l-0.4,1.2c-1-0.5-2.1-0.8-3.2-0.8c-2.4-0.2-4.5,1.6-4.7,4c0,0.2,0,0.5,0,0.7c-0.2,2.5,1.7,4.6,4.2,4.8
			c0.2,0,0.4,0,0.6,0c1.2,0,2.3-0.3,3.4-0.9L310.8,19.6z"/>
	</g>
</g>
</svg>
